up(1004)
down(1005)
right(1007)
left(1006)
handb(32)
enter(10)
exit(27)
chatup(84)
chatup(116)
x(88)
x(120)
z(90)
z(122)
mutem(77)
mutem(109)
mutes(78)
mutes(110)
arrace(65)
arrace(97)
radar(83)
radar(115)
view(67)
view(99)
up(56)
down(50)
right(54)
left(52)
up(53)
down(53)
right(66)
left(66)
right(98)
left(98)
radarType(69)
radarType(101)
zoomIn(43)
zoomOut(45)
carCam(86)
carCam(118)
resdown(82)
resdown(114)
lookLeft(68)
lookLeft(100)
lookRight(70)
lookRight(102)
lock1(49)